.....................
----------------------------------------------------------------------
Ran 21 tests in 0.273s

OK
Name             Stmts   Miss Branch BrPart  Cover   Missing
------------------------------------------------------------
Collatz.py          57      0     22      0   100%
TestCollatz.py      91      0      0      0   100%
------------------------------------------------------------
TOTAL              148      0     22      0   100%
